…
Publications


```r
zb_publications(query = "pyle")
#> # A tibble: 151 x 22
#>    referenceuuid label value authorlist year  title citationdetails volume
#>  * <chr>         <chr> <chr> <chr>      <chr> <chr> <chr>           <chr> 
#>  1 A91FACC3-F39… <Uns… <Uns… <Unspecif… ""    [Ori… ""              ""    
#>  2 24689AE4-C77… Alon… Alon… Alonso-Za… 2016  Manu… <em>ZooKeys</e… 550   
#>  3 913BB1FB-1C2… Asgh… Asgh… Asghari, … 2015  Desc… <em>Zootaxa</e… 3986  
#>  4 F8ECE6CE-E77… Bald… Bald… Baldwin, … 1998  <i>B… <I>Ichthyologi… 45    
#>  5 72D9641B-2A9… Bass… Bass… Basset, Y… 1997  Para… <em>AMBIO: A J… ""    
#>  6 5CB7EE8B-042… Bass… Bass… Basset, Y… 2000  Quan… <em>Bioscience… 50    
#>  7 A06A8B51-46B… Bass… Bass… Bassett, … 1997  Para… <em>AMBIO: A J… ""    
#>  8 FAFE53C6-FDD… Bous… Bous… Boustany,… 2002  Sate… <em>Nature</em… 415   
#>  9 18985DB2-CC5… Bush… Bush… Bush, Eli… 1997  Taxo… <em>Harvard Pa… 2     
#> 10 180454B5-D0C… Cid … Cid … Cid Del P… 2016  Five… <em>Zootaxa</e… 4109  
#> # ... with 141 more rows, and 14 more variables: number <chr>,
#> #   edition <chr>, publisher <chr>, placepublished <chr>,
#> #   pagination <chr>, startpage <chr>, endpage <chr>, language <chr>,
#> #   languageid <chr>, referencetype <chr>, lsid <chr>,
#> #   parentreferenceid <chr>, parentreference <chr>, authors <list>
```
…
Matching taxon name service


```r
zb_matching(id = "FFF7160A-372D-40E9-9611-23AF5D9EAC4C")
#> # A tibble: 36 x 8
#>    protonymuuid   acceptedprotonymu… protonymuuidarray    fullnamestring  
#>    <fct>          <fct>              <fct>                <fct>           
#>  1 FFF7160A-372D… FFF7160A-372D-40E… FBDC898C-F1EA-4768-… Cheilodipterus …
#>  2 FFF7160A-372D… FFF7160A-372D-40E… 97CE20CD-4D6E-4A59-… Gasterosteus Sa…
#>  3 FFF7160A-372D… FFF7160A-372D-40E… 97CE20CD-4D6E-4A59-… Gaſteroſteus Sa…
#>  4 FFF7160A-372D… FFF7160A-372D-40E… 4D4EC609-D241-411E-… Pomatomus salta…
#>  5 FFF7160A-372D… FFF7160A-372D-40E… 4D4EC609-D241-411E-… Pomatomus salta…
#>  6 FFF7160A-372D… FFF7160A-372D-40E… 67D18558-763F-48B2-… Temnodon saltat…
#>  7 FFF7160A-372D… FFF7160A-372D-40E… FBDC898C-F1EA-4768-… Cheilodipterus …
#>  8 FFF7160A-372D… FFF7160A-372D-40E… 97CE20CD-4D6E-4A59-… Gasterosteus Sa…
#>  9 FFF7160A-372D… FFF7160A-372D-40E… 97CE20CD-4D6E-4A59-… Gaſteroſteus Sa…
#> 10 FFF7160A-372D… FFF7160A-372D-40E… 4D4EC609-D241-411E-… Pomatomus salta…
#> # ... with 26 more rows, and 4 more variables: nomenclaturalcodeid <int>,
#> #   taxonrank <fct>, synonymtype <int>, referencecount <int>
```

ZooBank usage stats


```r
zb_stats(start_date = "2018-03-01", end_date = "2018-04-01")
#> # A tibble: 96 x 3
#>    identifierdomain day        recordcount
#>    <chr>            <chr>      <chr>      
#>  1 ZooBank Author   2018-03-01 39         
#>  2 ZooBank Author   2018-03-02 25         
#>  3 ZooBank Author   2018-03-03 9          
#>  4 ZooBank Author   2018-03-04 6          
#>  5 ZooBank Author   2018-03-05 23         
#>  6 ZooBank Author   2018-03-06 17         
#>  7 ZooBank Author   2018-03-07 30         
#>  8 ZooBank Author   2018-03-08 20         
#>  9 ZooBank Author   2018-03-09 20         
#> 10 ZooBank Author   2018-03-10 3          
#> # ... with 86 more rows
```
…
